%YAML 1.1
%TAG !u! tag:unity3d.com,2011:
--- !u!114 &11400000
MonoBehaviour:
  m_ObjectHideFlags: 0
  m_CorrespondingSourceObject: {fileID: 0}
  m_PrefabInstance: {fileID: 0}
  m_PrefabAsset: {fileID: 0}
  m_GameObject: {fileID: 0}
  m_Enabled: 1
  m_EditorHideFlags: 0
  m_Script: {fileID: 11500000, guid: 846edfbaca05f4260a9b9ee7d54f966f, type: 3}
  m_Name: 75A4A053-179E-451C-8A46-8D3F8ABF60D0
  m_EditorClassIdentifier: 
  objectName: GP_Cibleacquise_Dist
  id: 84253788
  guid: 75A4A053-179E-451C-8A46-8D3F8ABF60D0
