{
 "PluginInfo": {
  "Project": "BlindTarget",
  "Platform": "Mac",
  "BasePlatform": "Mac",
  "Plugins": {
   "Plugin": {
    "Name": "Wwise Tone Generator",
    "ID": "6684674",
    "DLL": "AkToneGen"
   },
   "Plugin": {
    "Name": "Wwise RoomVerb",
    "ID": "7733251",
    "DLL": "AkRoomVerb"
   },
   "Plugin": {
    "Name": "Wwise Guitar Distortion",
    "ID": "8257539",
    "DLL": "AkGuitarDistortion"
   },
   "Plugin": {
    "Name": "Wwise Meter",
    "ID": "8454147",
    "DLL": "AkSoundEngineDLL"
   },
   "Plugin": {
    "Name": "Wwise Harmonizer",
    "ID": "9043971",
    "DLL": "AkHarmonizer"
   },
   "Plugin": {
    "Name": "Wwise Synth One",
    "ID": "9699330",
    "DLL": "AkSynthOne"
   },
   "Plugin": {
    "Name": "Wwise Reflect",
    "ID": "11206659",
    "DLL": "AkReflect"
   },
   "Plugin": {
    "Name": "System",
    "ID": "11403271",
    "DLL": "DefaultSink"
   },
   "Plugin": {
    "Name": "No Output",
    "ID": "11862023",
    "DLL": "DefaultSink"
   },
   "Plugin": {
    "Name": "Auro Headphone",
    "ID": "72093811",
    "DLL": "Auro"
   }
  }
 }
}