%YAML 1.1
%TAG !u! tag:unity3d.com,2011:
--- !u!114 &11400000
MonoBehaviour:
  m_ObjectHideFlags: 0
  m_CorrespondingSourceObject: {fileID: 0}
  m_PrefabInstance: {fileID: 0}
  m_PrefabAsset: {fileID: 0}
  m_GameObject: {fileID: 0}
  m_Enabled: 1
  m_EditorHideFlags: 0
  m_Script: {fileID: 11500000, guid: 1a975d59161e3e04e859c277ebced36f, type: 3}
  m_Name: GrenadeLauncherEquipment
  m_EditorClassIdentifier: 
  _PrimaryAction: {fileID: 11400000, guid: 7d37524bba8119743bc533eef8d5cb38, type: 2}
  _SecondaryAction: {fileID: 11400000, guid: a308484f9e68f3b4bb0ac569f49babd8, type: 2}
  _SpecialAction: {fileID: 0}
  _OptionalAction: {fileID: 0}
  SelectEvent:
    idInternal: 0
    valueGuidInternal: 
    WwiseObjectReference: {fileID: 11400000, guid: 23f17504b79bb334e832bf48fbb15ffc,
      type: 2}
  CarryEvent:
    idInternal: 0
    valueGuidInternal: 
    WwiseObjectReference: {fileID: 11400000, guid: cf2059020a6c4ba499101350c972c7d0,
      type: 2}
