%YAML 1.1
%TAG !u! tag:unity3d.com,2011:
--- !u!114 &11400000
MonoBehaviour:
  m_ObjectHideFlags: 0
  m_CorrespondingSourceObject: {fileID: 0}
  m_PrefabInstance: {fileID: 0}
  m_PrefabAsset: {fileID: 0}
  m_GameObject: {fileID: 0}
  m_Enabled: 1
  m_EditorHideFlags: 0
  m_Script: {fileID: 11500000, guid: 1a975d59161e3e04e859c277ebced36f, type: 3}
  m_Name: ShotgunEquipmentInfinite
  m_EditorClassIdentifier: 
  _PrimaryAction: {fileID: 11400000, guid: f8f2cd231931d3a4e933c0569518a2bd, type: 2}
  _SecondaryAction: {fileID: 11400000, guid: 132c5c166e7e38e4a9cc684aae2491d4, type: 2}
  _SpecialAction: {fileID: 0}
  _OptionalAction: {fileID: 11400000, guid: 53610e05ec0baa741bf813ace63f40bf, type: 2}
  SelectEvent:
    idInternal: 0
    valueGuidInternal: 
    WwiseObjectReference: {fileID: 11400000, guid: 658763a589b54a144922e732a675da2d,
      type: 2}
  CarryEvent:
    idInternal: 0
    valueGuidInternal: 
    WwiseObjectReference: {fileID: 11400000, guid: 30e41c729ce7b7444a2beb87eb3d09ef,
      type: 2}
