%YAML 1.1
%TAG !u! tag:unity3d.com,2011:
--- !u!114 &11400000
MonoBehaviour:
  m_ObjectHideFlags: 0
  m_CorrespondingSourceObject: {fileID: 0}
  m_PrefabInstance: {fileID: 0}
  m_PrefabAsset: {fileID: 0}
  m_GameObject: {fileID: 0}
  m_Enabled: 1
  m_EditorHideFlags: 0
  m_Script: {fileID: 11500000, guid: e18ade5edae673047b1e67925cd00f0d, type: 3}
  m_Name: RegisteredTypePoolObjects
  m_EditorClassIdentifier: 
  Prefabs:
  - {fileID: 5670163780735484340, guid: d01c89769043b7f418f1ea2de132dfa4, type: 3}
  - {fileID: 8026319016173714633, guid: 44f5f38619ea4de43895c066791dc53a, type: 3}
  - {fileID: 1206774180596537274, guid: cdeb230485206004e9459e051907083c, type: 3}
  - {fileID: 8668679295055398955, guid: 8cbe04e42aeac7540bd533ad01ff60d5, type: 3}
