%YAML 1.1
%TAG !u! tag:unity3d.com,2011:
--- !u!114 &11400000
MonoBehaviour:
  m_ObjectHideFlags: 0
  m_CorrespondingSourceObject: {fileID: 0}
  m_PrefabInstance: {fileID: 0}
  m_PrefabAsset: {fileID: 0}
  m_GameObject: {fileID: 0}
  m_Enabled: 1
  m_EditorHideFlags: 0
  m_Script: {fileID: 11500000, guid: 7f3bd5ed1e3004adbb8a95d415b68e23, type: 3}
  m_Name: 5F52A6FB-8430-43D3-AAD2-428D1E5286C8
  m_EditorClassIdentifier: 
  objectName: Reflect_01
  id: 760079770
  guid: 5F52A6FB-8430-43D3-AAD2-428D1E5286C8
