%YAML 1.1
%TAG !u! tag:unity3d.com,2011:
--- !u!114 &11400000
MonoBehaviour:
  m_ObjectHideFlags: 0
  m_CorrespondingSourceObject: {fileID: 0}
  m_PrefabInstance: {fileID: 0}
  m_PrefabAsset: {fileID: 0}
  m_GameObject: {fileID: 0}
  m_Enabled: 1
  m_EditorHideFlags: 0
  m_Script: {fileID: 11500000, guid: 5ff3c50c2163b72438cf693bed426515, type: 3}
  m_Name: BasicGunActionInfinite
  m_EditorClassIdentifier: 
  TriggerActionOnSelected: 0
  ContinuousAction: 1
  _SoundRadius: 3
  _AmmoType:
    _Id: 4
  _MagSize: -12
  IsAutomatic: 1
  FiringRate: 4
  DamagePerHit: 1
  _MuzzleVelocity: 400
  ReloadDelay: -4
  AutoReload: 1
  RoundPerRoundReload: 0
  _IsBallistic: 0
  ConeAngle: -1
  MaxBurstSize: -1
  DelayBetweenBursts: 1
  ShortRangeDistance: 1
  MediumRangeDistance: 1
  LongRangeDistance: -1
  ShortRangeMultiplier: 1
  MediumRangeMultiplier: 1
  LongRangeMultiplier: 1
  ShootEvent:
    idInternal: 0
    valueGuidInternal: 
    WwiseObjectReference: {fileID: 11400000, guid: fca6b7767eb232045ac3c9d04f1c87a9,
      type: 2}
  ReloadEvent:
    idInternal: 0
    valueGuidInternal: 
    WwiseObjectReference: {fileID: 11400000, guid: 811ef5e25b953c542825eb6c226a1851,
      type: 2}
  AmmoCountRTPC:
    idInternal: 0
    valueGuidInternal: 
    WwiseObjectReference: {fileID: 11400000, guid: 615b693d3c7614f43848a99978a66724,
      type: 2}
  EmptyMagEvent:
    idInternal: 0
    valueGuidInternal: 
    WwiseObjectReference: {fileID: 11400000, guid: 0baffb110adb9524d9e0b0cec1bc133d,
      type: 2}
  ShellEvent:
    idInternal: 0
    valueGuidInternal: 
    WwiseObjectReference: {fileID: 11400000, guid: e590fbd8f1db8e74787c49e6af31e0a4,
      type: 2}
  _HitEvent:
    idInternal: 0
    valueGuidInternal: 
    WwiseObjectReference: {fileID: 11400000, guid: cbf5de98620a17341aefd9d75559448e,
      type: 2}
