%YAML 1.1
%TAG !u! tag:unity3d.com,2011:
--- !u!114 &11400000
MonoBehaviour:
  m_ObjectHideFlags: 0
  m_CorrespondingSourceObject: {fileID: 0}
  m_PrefabInstance: {fileID: 0}
  m_PrefabAsset: {fileID: 0}
  m_GameObject: {fileID: 0}
  m_Enabled: 1
  m_EditorHideFlags: 0
  m_Script: {fileID: 11500000, guid: 05464dbf1df7448e4928b0e7c48c44c6, type: 3}
  m_Name: 57A06182-E473-45EC-AAD0-A79B7EC74124
  m_EditorClassIdentifier: 
  objectName: Textures
  id: 1276632493
  guid: 57A06182-E473-45EC-AAD0-A79B7EC74124
