%YAML 1.1
%TAG !u! tag:unity3d.com,2011:
--- !u!114 &11400000
MonoBehaviour:
  m_ObjectHideFlags: 0
  m_CorrespondingSourceObject: {fileID: 0}
  m_PrefabInstance: {fileID: 0}
  m_PrefabAsset: {fileID: 0}
  m_GameObject: {fileID: 0}
  m_Enabled: 1
  m_EditorHideFlags: 0
  m_Script: {fileID: 11500000, guid: 40ee3b6ccc0e3459bbda86e3d95d7cb2, type: 3}
  m_Name: 3902DE82-FE1E-4808-9DAC-BC3A8D7AB02C
  m_EditorClassIdentifier: 
  objectName: Play_Horloge
  id: 1086738306
  guid: 3902DE82-FE1E-4808-9DAC-BC3A8D7AB02C
