%YAML 1.1
%TAG !u! tag:unity3d.com,2011:
--- !u!114 &11400000
MonoBehaviour:
  m_ObjectHideFlags: 0
  m_CorrespondingSourceObject: {fileID: 0}
  m_PrefabInstance: {fileID: 0}
  m_PrefabAsset: {fileID: 0}
  m_GameObject: {fileID: 0}
  m_Enabled: 1
  m_EditorHideFlags: 0
  m_Script: {fileID: 11500000, guid: 40ee3b6ccc0e3459bbda86e3d95d7cb2, type: 3}
  m_Name: 50CF3425-C601-467C-8A83-B47BA5254D6B
  m_EditorClassIdentifier: 
  objectName: Play_Weapon_MachineGun_Shells
  id: 2723155272
  guid: 50CF3425-C601-467C-8A83-B47BA5254D6B
