%YAML 1.1
%TAG !u! tag:unity3d.com,2011:
--- !u!114 &11400000
MonoBehaviour:
  m_ObjectHideFlags: 0
  m_CorrespondingSourceObject: {fileID: 0}
  m_PrefabInstance: {fileID: 0}
  m_PrefabAsset: {fileID: 0}
  m_GameObject: {fileID: 0}
  m_Enabled: 1
  m_EditorHideFlags: 0
  m_Script: {fileID: 11500000, guid: 40ee3b6ccc0e3459bbda86e3d95d7cb2, type: 3}
  m_Name: 76813315-022C-4A7C-B6F7-49B2F4957FB1
  m_EditorClassIdentifier: 
  objectName: Play_Weapon_ShotGun_Shot
  id: 1325848824
  guid: 76813315-022C-4A7C-B6F7-49B2F4957FB1
