%YAML 1.1
%TAG !u! tag:unity3d.com,2011:
--- !u!29 &1
OcclusionCullingSettings:
  m_ObjectHideFlags: 0
  serializedVersion: 2
  m_OcclusionBakeSettings:
    smallestOccluder: 5
    smallestHole: 0.25
    backfaceThreshold: 100
  m_SceneGUID: 00000000000000000000000000000000
  m_OcclusionCullingData: {fileID: 0}
--- !u!104 &2
RenderSettings:
  m_ObjectHideFlags: 0
  serializedVersion: 9
  m_Fog: 0
  m_FogColor: {r: 0.5, g: 0.5, b: 0.5, a: 1}
  m_FogMode: 3
  m_FogDensity: 0.01
  m_LinearFogStart: 0
  m_LinearFogEnd: 300
  m_AmbientSkyColor: {r: 0.212, g: 0.227, b: 0.259, a: 1}
  m_AmbientEquatorColor: {r: 0.114, g: 0.125, b: 0.133, a: 1}
  m_AmbientGroundColor: {r: 0.047, g: 0.043, b: 0.035, a: 1}
  m_AmbientIntensity: 1
  m_AmbientMode: 0
  m_SubtractiveShadowColor: {r: 0.42, g: 0.478, b: 0.627, a: 1}
  m_SkyboxMaterial: {fileID: 10304, guid: 0000000000000000f000000000000000, type: 0}
  m_HaloStrength: 0.5
  m_FlareStrength: 1
  m_FlareFadeSpeed: 3
  m_HaloTexture: {fileID: 0}
  m_SpotCookie: {fileID: 10001, guid: 0000000000000000e000000000000000, type: 0}
  m_DefaultReflectionMode: 0
  m_DefaultReflectionResolution: 128
  m_ReflectionBounces: 1
  m_ReflectionIntensity: 1
  m_CustomReflection: {fileID: 0}
  m_Sun: {fileID: 0}
  m_IndirectSpecularColor: {r: 0.37311953, g: 0.38074014, b: 0.3587274, a: 1}
  m_UseRadianceAmbientProbe: 0
--- !u!157 &3
LightmapSettings:
  m_ObjectHideFlags: 0
  serializedVersion: 11
  m_GIWorkflowMode: 0
  m_GISettings:
    serializedVersion: 2
    m_BounceScale: 1
    m_IndirectOutputScale: 1
    m_AlbedoBoost: 1
    m_EnvironmentLightingMode: 0
    m_EnableBakedLightmaps: 1
    m_EnableRealtimeLightmaps: 1
  m_LightmapEditorSettings:
    serializedVersion: 10
    m_Resolution: 2
    m_BakeResolution: 40
    m_AtlasSize: 1024
    m_AO: 0
    m_AOMaxDistance: 1
    m_CompAOExponent: 1
    m_CompAOExponentDirect: 0
    m_Padding: 2
    m_LightmapParameters: {fileID: 0}
    m_LightmapsBakeMode: 1
    m_TextureCompression: 1
    m_FinalGather: 0
    m_FinalGatherFiltering: 1
    m_FinalGatherRayCount: 256
    m_ReflectionCompression: 2
    m_MixedBakeMode: 2
    m_BakeBackend: 1
    m_PVRSampling: 1
    m_PVRDirectSampleCount: 32
    m_PVRSampleCount: 500
    m_PVRBounces: 2
    m_PVRFilterTypeDirect: 0
    m_PVRFilterTypeIndirect: 0
    m_PVRFilterTypeAO: 0
    m_PVRFilteringMode: 1
    m_PVRCulling: 1
    m_PVRFilteringGaussRadiusDirect: 1
    m_PVRFilteringGaussRadiusIndirect: 5
    m_PVRFilteringGaussRadiusAO: 2
    m_PVRFilteringAtrousPositionSigmaDirect: 0.5
    m_PVRFilteringAtrousPositionSigmaIndirect: 2
    m_PVRFilteringAtrousPositionSigmaAO: 1
    m_ShowResolutionOverlay: 1
  m_LightingDataAsset: {fileID: 0}
  m_UseShadowmask: 1
--- !u!196 &4
NavMeshSettings:
  serializedVersion: 2
  m_ObjectHideFlags: 0
  m_BuildSettings:
    serializedVersion: 2
    agentTypeID: 0
    agentRadius: 0.5
    agentHeight: 2
    agentSlope: 45
    agentClimb: 0.4
    ledgeDropHeight: 0
    maxJumpAcrossDistance: 0
    minRegionArea: 2
    manualCellSize: 0
    cellSize: 0.16666667
    manualTileSize: 0
    tileSize: 256
    accuratePlacement: 0
    debug:
      m_Flags: 0
  m_NavMeshData: {fileID: 0}
--- !u!1001 &495328504
PrefabInstance:
  m_ObjectHideFlags: 0
  serializedVersion: 2
  m_Modification:
    m_TransformParent: {fileID: 705125589}
    m_Modifications:
    - target: {fileID: 4117818406506879319, guid: 54b32c48e16d1a749b4e62fc189be6f2,
        type: 3}
      propertyPath: m_Name
      value: ExitGameButton
      objectReference: {fileID: 0}
    - target: {fileID: 4117818406506879316, guid: 54b32c48e16d1a749b4e62fc189be6f2,
        type: 3}
      propertyPath: m_LocalPosition.x
      value: 0
      objectReference: {fileID: 0}
    - target: {fileID: 4117818406506879316, guid: 54b32c48e16d1a749b4e62fc189be6f2,
        type: 3}
      propertyPath: m_LocalPosition.y
      value: 0
      objectReference: {fileID: 0}
    - target: {fileID: 4117818406506879316, guid: 54b32c48e16d1a749b4e62fc189be6f2,
        type: 3}
      propertyPath: m_LocalPosition.z
      value: 0
      objectReference: {fileID: 0}
    - target: {fileID: 4117818406506879316, guid: 54b32c48e16d1a749b4e62fc189be6f2,
        type: 3}
      propertyPath: m_RootOrder
      value: 1
      objectReference: {fileID: 0}
    - target: {fileID: 4117818406506879316, guid: 54b32c48e16d1a749b4e62fc189be6f2,
        type: 3}
      propertyPath: m_LocalEulerAnglesHint.x
      value: 0
      objectReference: {fileID: 0}
    - target: {fileID: 4117818406506879316, guid: 54b32c48e16d1a749b4e62fc189be6f2,
        type: 3}
      propertyPath: m_LocalEulerAnglesHint.y
      value: 0
      objectReference: {fileID: 0}
    - target: {fileID: 4117818406506879316, guid: 54b32c48e16d1a749b4e62fc189be6f2,
        type: 3}
      propertyPath: m_LocalEulerAnglesHint.z
      value: 0
      objectReference: {fileID: 0}
    - target: {fileID: 4117818406506879316, guid: 54b32c48e16d1a749b4e62fc189be6f2,
        type: 3}
      propertyPath: m_AnchoredPosition.x
      value: 0
      objectReference: {fileID: 0}
    - target: {fileID: 4117818406506879316, guid: 54b32c48e16d1a749b4e62fc189be6f2,
        type: 3}
      propertyPath: m_AnchoredPosition.y
      value: 50
      objectReference: {fileID: 0}
    - target: {fileID: 4117818406506879316, guid: 54b32c48e16d1a749b4e62fc189be6f2,
        type: 3}
      propertyPath: m_SizeDelta.x
      value: -100
      objectReference: {fileID: 0}
    - target: {fileID: 4117818406506879316, guid: 54b32c48e16d1a749b4e62fc189be6f2,
        type: 3}
      propertyPath: m_AnchorMax.x
      value: 1
      objectReference: {fileID: 0}
    - target: {fileID: 4117818406506879316, guid: 54b32c48e16d1a749b4e62fc189be6f2,
        type: 3}
      propertyPath: m_AnchorMax.y
      value: 0
      objectReference: {fileID: 0}
    - target: {fileID: 4117818406506879316, guid: 54b32c48e16d1a749b4e62fc189be6f2,
        type: 3}
      propertyPath: m_AnchorMin.y
      value: 0
      objectReference: {fileID: 0}
    - target: {fileID: 4117818406506879316, guid: 54b32c48e16d1a749b4e62fc189be6f2,
        type: 3}
      propertyPath: m_LocalRotation.x
      value: -0
      objectReference: {fileID: 0}
    - target: {fileID: 4117818406506879316, guid: 54b32c48e16d1a749b4e62fc189be6f2,
        type: 3}
      propertyPath: m_LocalRotation.y
      value: -0
      objectReference: {fileID: 0}
    - target: {fileID: 4117818406506879316, guid: 54b32c48e16d1a749b4e62fc189be6f2,
        type: 3}
      propertyPath: m_LocalRotation.z
      value: -0
      objectReference: {fileID: 0}
    - target: {fileID: 4117818406506879316, guid: 54b32c48e16d1a749b4e62fc189be6f2,
        type: 3}
      propertyPath: m_LocalScale.x
      value: 1
      objectReference: {fileID: 0}
    - target: {fileID: 4117818406506879316, guid: 54b32c48e16d1a749b4e62fc189be6f2,
        type: 3}
      propertyPath: m_LocalScale.y
      value: 1
      objectReference: {fileID: 0}
    - target: {fileID: 4117818406506879316, guid: 54b32c48e16d1a749b4e62fc189be6f2,
        type: 3}
      propertyPath: m_LocalScale.z
      value: 1
      objectReference: {fileID: 0}
    - target: {fileID: 4117818406506879316, guid: 54b32c48e16d1a749b4e62fc189be6f2,
        type: 3}
      propertyPath: m_SizeDelta.y
      value: 45
      objectReference: {fileID: 0}
    - target: {fileID: 4117818406506879316, guid: 54b32c48e16d1a749b4e62fc189be6f2,
        type: 3}
      propertyPath: m_Pivot.y
      value: 0
      objectReference: {fileID: 0}
    - target: {fileID: 4117818406506879312, guid: 54b32c48e16d1a749b4e62fc189be6f2,
        type: 3}
      propertyPath: clickEvent._PersistentCalls.Array.size
      value: 1
      objectReference: {fileID: 0}
    - target: {fileID: 4117818406506879312, guid: 54b32c48e16d1a749b4e62fc189be6f2,
        type: 3}
      propertyPath: clickEvent._PersistentCalls.Array.data[0]._MethodName
      value: CGV.CGVMainMenu, Assembly-CSharp, Version=0.0.0.0, Culture=neutral, PublicKeyToken=null.ExitGame
      objectReference: {fileID: 0}
    - target: {fileID: 4117818406506879312, guid: 54b32c48e16d1a749b4e62fc189be6f2,
        type: 3}
      propertyPath: clickEvent._PersistentCalls.Array.data[0]._Target
      value: 
      objectReference: {fileID: 0}
    - target: {fileID: 4117818407203529255, guid: 54b32c48e16d1a749b4e62fc189be6f2,
        type: 3}
      propertyPath: m_havePropertiesChanged
      value: 1
      objectReference: {fileID: 0}
    - target: {fileID: 4117818407203529255, guid: 54b32c48e16d1a749b4e62fc189be6f2,
        type: 3}
      propertyPath: m_isInputParsingRequired
      value: 1
      objectReference: {fileID: 0}
    - target: {fileID: 4117818407203529255, guid: 54b32c48e16d1a749b4e62fc189be6f2,
        type: 3}
      propertyPath: m_text
      value: Exit
      objectReference: {fileID: 0}
    - target: {fileID: 4117818407203529255, guid: 54b32c48e16d1a749b4e62fc189be6f2,
        type: 3}
      propertyPath: m_textInfo.characterCount
      value: 4
      objectReference: {fileID: 0}
    - target: {fileID: 4117818407203529255, guid: 54b32c48e16d1a749b4e62fc189be6f2,
        type: 3}
      propertyPath: m_textInfo.spaceCount
      value: 0
      objectReference: {fileID: 0}
    - target: {fileID: 4117818407203529255, guid: 54b32c48e16d1a749b4e62fc189be6f2,
        type: 3}
      propertyPath: m_textInfo.wordCount
      value: 1
      objectReference: {fileID: 0}
    - target: {fileID: 2108207947739724026, guid: 54b32c48e16d1a749b4e62fc189be6f2,
        type: 3}
      propertyPath: m_Text
      value: Exit Game
      objectReference: {fileID: 0}
    - target: {fileID: 2108207947739724026, guid: 54b32c48e16d1a749b4e62fc189be6f2,
        type: 3}
      propertyPath: m_Enabled
      value: 1
      objectReference: {fileID: 0}
    - target: {fileID: 7601051028709344466, guid: 54b32c48e16d1a749b4e62fc189be6f2,
        type: 3}
      propertyPath: m_IgnoreLayout
      value: 1
      objectReference: {fileID: 0}
    m_RemovedComponents: []
  m_SourcePrefab: {fileID: 100100000, guid: 54b32c48e16d1a749b4e62fc189be6f2, type: 3}
--- !u!1 &596988552
GameObject:
  m_ObjectHideFlags: 0
  m_CorrespondingSourceObject: {fileID: 0}
  m_PrefabInstance: {fileID: 0}
  m_PrefabAsset: {fileID: 0}
  serializedVersion: 6
  m_Component:
  - component: {fileID: 596988554}
  - component: {fileID: 596988553}
  m_Layer: 0
  m_Name: WwiseGlobal
  m_TagString: Untagged
  m_Icon: {fileID: 0}
  m_NavMeshLayer: 0
  m_StaticEditorFlags: 0
  m_IsActive: 1
--- !u!114 &596988553
MonoBehaviour:
  m_ObjectHideFlags: 0
  m_CorrespondingSourceObject: {fileID: 0}
  m_PrefabInstance: {fileID: 0}
  m_PrefabAsset: {fileID: 0}
  m_GameObject: {fileID: 596988552}
  m_Enabled: 1
  m_EditorHideFlags: 0
  m_Script: {fileID: 11500000, guid: 5338637880fb144c3aab5f5a911202dd, type: 3}
  m_Name: 
  m_EditorClassIdentifier: 
  InitializationSettings: {fileID: 11400000, guid: 732647837b72143d290d9e9ce49db4ec,
    type: 2}
  basePath: 
  language: 
  defaultPoolSize: 0
  lowerPoolSize: 0
  streamingPoolSize: 0
  preparePoolSize: 0
  memoryCutoffThreshold: 0
  monitorPoolSize: 0
  monitorQueuePoolSize: 0
  callbackManagerBufferSize: 0
  spatialAudioPoolSize: 0
  maxSoundPropagationDepth: 0
  diffractionFlags: 11
  engineLogging: 0
--- !u!4 &596988554
Transform:
  m_ObjectHideFlags: 0
  m_CorrespondingSourceObject: {fileID: 0}
  m_PrefabInstance: {fileID: 0}
  m_PrefabAsset: {fileID: 0}
  m_GameObject: {fileID: 596988552}
  m_LocalRotation: {x: 0, y: 0, z: 0, w: 1}
  m_LocalPosition: {x: 0, y: 0, z: 0}
  m_LocalScale: {x: 1, y: 1, z: 1}
  m_Children: []
  m_Father: {fileID: 0}
  m_RootOrder: 4
  m_LocalEulerAnglesHint: {x: 0, y: 0, z: 0}
--- !u!1001 &705125588
PrefabInstance:
  m_ObjectHideFlags: 0
  serializedVersion: 2
  m_Modification:
    m_TransformParent: {fileID: 0}
    m_Modifications:
    - target: {fileID: 2375111418945773963, guid: 3dd8f307a4adc0b41b1b92affa8545d6,
        type: 3}
      propertyPath: m_Name
      value: DefaultCanvas
      objectReference: {fileID: 0}
    - target: {fileID: 3756806021188470558, guid: 3dd8f307a4adc0b41b1b92affa8545d6,
        type: 3}
      propertyPath: m_LocalPosition.x
      value: 0
      objectReference: {fileID: 0}
    - target: {fileID: 3756806021188470558, guid: 3dd8f307a4adc0b41b1b92affa8545d6,
        type: 3}
      propertyPath: m_LocalPosition.y
      value: 0
      objectReference: {fileID: 0}
    - target: {fileID: 3756806021188470558, guid: 3dd8f307a4adc0b41b1b92affa8545d6,
        type: 3}
      propertyPath: m_LocalPosition.z
      value: 0
      objectReference: {fileID: 0}
    - target: {fileID: 3756806021188470558, guid: 3dd8f307a4adc0b41b1b92affa8545d6,
        type: 3}
      propertyPath: m_LocalRotation.x
      value: 0
      objectReference: {fileID: 0}
    - target: {fileID: 3756806021188470558, guid: 3dd8f307a4adc0b41b1b92affa8545d6,
        type: 3}
      propertyPath: m_LocalRotation.y
      value: 0
      objectReference: {fileID: 0}
    - target: {fileID: 3756806021188470558, guid: 3dd8f307a4adc0b41b1b92affa8545d6,
        type: 3}
      propertyPath: m_LocalRotation.z
      value: 0
      objectReference: {fileID: 0}
    - target: {fileID: 3756806021188470558, guid: 3dd8f307a4adc0b41b1b92affa8545d6,
        type: 3}
      propertyPath: m_LocalRotation.w
      value: 1
      objectReference: {fileID: 0}
    - target: {fileID: 3756806021188470558, guid: 3dd8f307a4adc0b41b1b92affa8545d6,
        type: 3}
      propertyPath: m_RootOrder
      value: 3
      objectReference: {fileID: 0}
    - target: {fileID: 3756806021188470558, guid: 3dd8f307a4adc0b41b1b92affa8545d6,
        type: 3}
      propertyPath: m_LocalEulerAnglesHint.x
      value: 0
      objectReference: {fileID: 0}
    - target: {fileID: 3756806021188470558, guid: 3dd8f307a4adc0b41b1b92affa8545d6,
        type: 3}
      propertyPath: m_LocalEulerAnglesHint.y
      value: 0
      objectReference: {fileID: 0}
    - target: {fileID: 3756806021188470558, guid: 3dd8f307a4adc0b41b1b92affa8545d6,
        type: 3}
      propertyPath: m_LocalEulerAnglesHint.z
      value: 0
      objectReference: {fileID: 0}
    - target: {fileID: 3756806021188470558, guid: 3dd8f307a4adc0b41b1b92affa8545d6,
        type: 3}
      propertyPath: m_AnchoredPosition.x
      value: 0
      objectReference: {fileID: 0}
    - target: {fileID: 3756806021188470558, guid: 3dd8f307a4adc0b41b1b92affa8545d6,
        type: 3}
      propertyPath: m_AnchoredPosition.y
      value: 0
      objectReference: {fileID: 0}
    - target: {fileID: 3756806021188470558, guid: 3dd8f307a4adc0b41b1b92affa8545d6,
        type: 3}
      propertyPath: m_SizeDelta.x
      value: 0
      objectReference: {fileID: 0}
    - target: {fileID: 3756806021188470558, guid: 3dd8f307a4adc0b41b1b92affa8545d6,
        type: 3}
      propertyPath: m_SizeDelta.y
      value: 0
      objectReference: {fileID: 0}
    - target: {fileID: 3756806021188470558, guid: 3dd8f307a4adc0b41b1b92affa8545d6,
        type: 3}
      propertyPath: m_AnchorMin.x
      value: 0
      objectReference: {fileID: 0}
    - target: {fileID: 3756806021188470558, guid: 3dd8f307a4adc0b41b1b92affa8545d6,
        type: 3}
      propertyPath: m_AnchorMin.y
      value: 0
      objectReference: {fileID: 0}
    - target: {fileID: 3756806021188470558, guid: 3dd8f307a4adc0b41b1b92affa8545d6,
        type: 3}
      propertyPath: m_AnchorMax.x
      value: 0
      objectReference: {fileID: 0}
    - target: {fileID: 3756806021188470558, guid: 3dd8f307a4adc0b41b1b92affa8545d6,
        type: 3}
      propertyPath: m_AnchorMax.y
      value: 0
      objectReference: {fileID: 0}
    - target: {fileID: 3756806021188470558, guid: 3dd8f307a4adc0b41b1b92affa8545d6,
        type: 3}
      propertyPath: m_Pivot.x
      value: 0
      objectReference: {fileID: 0}
    - target: {fileID: 3756806021188470558, guid: 3dd8f307a4adc0b41b1b92affa8545d6,
        type: 3}
      propertyPath: m_Pivot.y
      value: 0
      objectReference: {fileID: 0}
    m_RemovedComponents: []
  m_SourcePrefab: {fileID: 100100000, guid: 3dd8f307a4adc0b41b1b92affa8545d6, type: 3}
--- !u!224 &705125589 stripped
RectTransform:
  m_CorrespondingSourceObject: {fileID: 6703221316754590848, guid: 3dd8f307a4adc0b41b1b92affa8545d6,
    type: 3}
  m_PrefabInstance: {fileID: 705125588}
  m_PrefabAsset: {fileID: 0}
--- !u!1001 &1701850176
PrefabInstance:
  m_ObjectHideFlags: 0
  serializedVersion: 2
  m_Modification:
    m_TransformParent: {fileID: 0}
    m_Modifications:
    - target: {fileID: 123566, guid: 89f4a0ae7ea3fa84ea56c91291d7bd87, type: 3}
      propertyPath: m_Name
      value: Accessibility Manager
      objectReference: {fileID: 0}
    - target: {fileID: 4973883477652662, guid: 89f4a0ae7ea3fa84ea56c91291d7bd87, type: 3}
      propertyPath: m_LocalPosition.x
      value: -46.724373
      objectReference: {fileID: 0}
    - target: {fileID: 4973883477652662, guid: 89f4a0ae7ea3fa84ea56c91291d7bd87, type: 3}
      propertyPath: m_LocalPosition.y
      value: -48.229156
      objectReference: {fileID: 0}
    - target: {fileID: 4973883477652662, guid: 89f4a0ae7ea3fa84ea56c91291d7bd87, type: 3}
      propertyPath: m_LocalPosition.z
      value: 0
      objectReference: {fileID: 0}
    - target: {fileID: 4973883477652662, guid: 89f4a0ae7ea3fa84ea56c91291d7bd87, type: 3}
      propertyPath: m_LocalRotation.x
      value: 0
      objectReference: {fileID: 0}
    - target: {fileID: 4973883477652662, guid: 89f4a0ae7ea3fa84ea56c91291d7bd87, type: 3}
      propertyPath: m_LocalRotation.y
      value: 0
      objectReference: {fileID: 0}
    - target: {fileID: 4973883477652662, guid: 89f4a0ae7ea3fa84ea56c91291d7bd87, type: 3}
      propertyPath: m_LocalRotation.z
      value: 0
      objectReference: {fileID: 0}
    - target: {fileID: 4973883477652662, guid: 89f4a0ae7ea3fa84ea56c91291d7bd87, type: 3}
      propertyPath: m_LocalRotation.w
      value: 1
      objectReference: {fileID: 0}
    - target: {fileID: 4973883477652662, guid: 89f4a0ae7ea3fa84ea56c91291d7bd87, type: 3}
      propertyPath: m_RootOrder
      value: 1
      objectReference: {fileID: 0}
    - target: {fileID: 4973883477652662, guid: 89f4a0ae7ea3fa84ea56c91291d7bd87, type: 3}
      propertyPath: m_LocalEulerAnglesHint.x
      value: 0
      objectReference: {fileID: 0}
    - target: {fileID: 4973883477652662, guid: 89f4a0ae7ea3fa84ea56c91291d7bd87, type: 3}
      propertyPath: m_LocalEulerAnglesHint.y
      value: 0
      objectReference: {fileID: 0}
    - target: {fileID: 4973883477652662, guid: 89f4a0ae7ea3fa84ea56c91291d7bd87, type: 3}
      propertyPath: m_LocalEulerAnglesHint.z
      value: 0
      objectReference: {fileID: 0}
    - target: {fileID: 11475380, guid: 89f4a0ae7ea3fa84ea56c91291d7bd87, type: 3}
      propertyPath: m_EditorOverride
      value: 1
      objectReference: {fileID: 0}
    - target: {fileID: 11475380, guid: 89f4a0ae7ea3fa84ea56c91291d7bd87, type: 3}
      propertyPath: m_EditorEnabledState
      value: 1
      objectReference: {fileID: 0}
    - target: {fileID: 22474968, guid: 89f4a0ae7ea3fa84ea56c91291d7bd87, type: 3}
      propertyPath: m_AnchoredPosition.x
      value: 0.14294434
      objectReference: {fileID: 0}
    - target: {fileID: 22474968, guid: 89f4a0ae7ea3fa84ea56c91291d7bd87, type: 3}
      propertyPath: m_AnchoredPosition.y
      value: -1.5
      objectReference: {fileID: 0}
    m_RemovedComponents: []
  m_SourcePrefab: {fileID: 100100000, guid: 89f4a0ae7ea3fa84ea56c91291d7bd87, type: 3}
--- !u!1 &1875058207
GameObject:
  m_ObjectHideFlags: 0
  m_CorrespondingSourceObject: {fileID: 0}
  m_PrefabInstance: {fileID: 0}
  m_PrefabAsset: {fileID: 0}
  serializedVersion: 6
  m_Component:
  - component: {fileID: 1875058210}
  - component: {fileID: 1875058209}
  - component: {fileID: 1875058208}
  m_Layer: 0
  m_Name: EventSystem
  m_TagString: Untagged
  m_Icon: {fileID: 0}
  m_NavMeshLayer: 0
  m_StaticEditorFlags: 0
  m_IsActive: 1
--- !u!114 &1875058208
MonoBehaviour:
  m_ObjectHideFlags: 0
  m_CorrespondingSourceObject: {fileID: 0}
  m_PrefabInstance: {fileID: 0}
  m_PrefabAsset: {fileID: 0}
  m_GameObject: {fileID: 1875058207}
  m_Enabled: 1
  m_EditorHideFlags: 0
  m_Script: {fileID: 1077351063, guid: f70555f144d8491a825f0804e09c671c, type: 3}
  m_Name: 
  m_EditorClassIdentifier: 
  m_HorizontalAxis: Horizontal
  m_VerticalAxis: Vertical
  m_SubmitButton: Submit
  m_CancelButton: Cancel
  m_InputActionsPerSecond: 10
  m_RepeatDelay: 0.5
  m_ForceModuleActive: 0
--- !u!114 &1875058209
MonoBehaviour:
  m_ObjectHideFlags: 0
  m_CorrespondingSourceObject: {fileID: 0}
  m_PrefabInstance: {fileID: 0}
  m_PrefabAsset: {fileID: 0}
  m_GameObject: {fileID: 1875058207}
  m_Enabled: 1
  m_EditorHideFlags: 0
  m_Script: {fileID: -619905303, guid: f70555f144d8491a825f0804e09c671c, type: 3}
  m_Name: 
  m_EditorClassIdentifier: 
  m_FirstSelected: {fileID: 0}
  m_sendNavigationEvents: 1
  m_DragThreshold: 10
--- !u!4 &1875058210
Transform:
  m_ObjectHideFlags: 0
  m_CorrespondingSourceObject: {fileID: 0}
  m_PrefabInstance: {fileID: 0}
  m_PrefabAsset: {fileID: 0}
  m_GameObject: {fileID: 1875058207}
  m_LocalRotation: {x: 0, y: 0, z: 0, w: 1}
  m_LocalPosition: {x: 0, y: 0, z: 0}
  m_LocalScale: {x: 1, y: 1, z: 1}
  m_Children: []
  m_Father: {fileID: 0}
  m_RootOrder: 2
  m_LocalEulerAnglesHint: {x: 0, y: 0, z: 0}
--- !u!1001 &2145788116
PrefabInstance:
  m_ObjectHideFlags: 0
  serializedVersion: 2
  m_Modification:
    m_TransformParent: {fileID: 0}
    m_Modifications:
    - target: {fileID: 3087431974975205428, guid: 7ec95831ac445f142bc7e78a38819890,
        type: 3}
      propertyPath: m_Name
      value: UICamera
      objectReference: {fileID: 0}
    - target: {fileID: 3087431974975205433, guid: 7ec95831ac445f142bc7e78a38819890,
        type: 3}
      propertyPath: m_RootOrder
      value: 0
      objectReference: {fileID: 0}
    - target: {fileID: 3087431974975205433, guid: 7ec95831ac445f142bc7e78a38819890,
        type: 3}
      propertyPath: m_LocalEulerAnglesHint.x
      value: 0
      objectReference: {fileID: 0}
    - target: {fileID: 3087431974975205433, guid: 7ec95831ac445f142bc7e78a38819890,
        type: 3}
      propertyPath: m_LocalEulerAnglesHint.y
      value: 0
      objectReference: {fileID: 0}
    - target: {fileID: 3087431974975205433, guid: 7ec95831ac445f142bc7e78a38819890,
        type: 3}
      propertyPath: m_LocalEulerAnglesHint.z
      value: 0
      objectReference: {fileID: 0}
    m_RemovedComponents: []
  m_SourcePrefab: {fileID: 100100000, guid: 7ec95831ac445f142bc7e78a38819890, type: 3}
--- !u!1001 &3375698040218132068
PrefabInstance:
  m_ObjectHideFlags: 0
  serializedVersion: 2
  m_Modification:
    m_TransformParent: {fileID: 705125589}
    m_Modifications:
    - target: {fileID: 1454527176719009626, guid: 1ccc8e2e624334c4a9d19c51ac84636c,
        type: 3}
      propertyPath: m_Name
      value: ThanksLabel
      objectReference: {fileID: 0}
    - target: {fileID: 1575153966761093898, guid: 1ccc8e2e624334c4a9d19c51ac84636c,
        type: 3}
      propertyPath: m_LocalPosition.x
      value: 0
      objectReference: {fileID: 0}
    - target: {fileID: 1575153966761093898, guid: 1ccc8e2e624334c4a9d19c51ac84636c,
        type: 3}
      propertyPath: m_LocalPosition.y
      value: 0
      objectReference: {fileID: 0}
    - target: {fileID: 1575153966761093898, guid: 1ccc8e2e624334c4a9d19c51ac84636c,
        type: 3}
      propertyPath: m_LocalPosition.z
      value: 0
      objectReference: {fileID: 0}
    - target: {fileID: 1575153966761093898, guid: 1ccc8e2e624334c4a9d19c51ac84636c,
        type: 3}
      propertyPath: m_LocalRotation.x
      value: -0
      objectReference: {fileID: 0}
    - target: {fileID: 1575153966761093898, guid: 1ccc8e2e624334c4a9d19c51ac84636c,
        type: 3}
      propertyPath: m_LocalRotation.y
      value: -0
      objectReference: {fileID: 0}
    - target: {fileID: 1575153966761093898, guid: 1ccc8e2e624334c4a9d19c51ac84636c,
        type: 3}
      propertyPath: m_LocalRotation.z
      value: -0
      objectReference: {fileID: 0}
    - target: {fileID: 1575153966761093898, guid: 1ccc8e2e624334c4a9d19c51ac84636c,
        type: 3}
      propertyPath: m_LocalRotation.w
      value: 1
      objectReference: {fileID: 0}
    - target: {fileID: 1575153966761093898, guid: 1ccc8e2e624334c4a9d19c51ac84636c,
        type: 3}
      propertyPath: m_RootOrder
      value: 0
      objectReference: {fileID: 0}
    - target: {fileID: 1575153966761093898, guid: 1ccc8e2e624334c4a9d19c51ac84636c,
        type: 3}
      propertyPath: m_LocalEulerAnglesHint.x
      value: 0
      objectReference: {fileID: 0}
    - target: {fileID: 1575153966761093898, guid: 1ccc8e2e624334c4a9d19c51ac84636c,
        type: 3}
      propertyPath: m_LocalEulerAnglesHint.y
      value: 0
      objectReference: {fileID: 0}
    - target: {fileID: 1575153966761093898, guid: 1ccc8e2e624334c4a9d19c51ac84636c,
        type: 3}
      propertyPath: m_LocalEulerAnglesHint.z
      value: 0
      objectReference: {fileID: 0}
    - target: {fileID: 1575153966761093898, guid: 1ccc8e2e624334c4a9d19c51ac84636c,
        type: 3}
      propertyPath: m_AnchoredPosition.x
      value: 0
      objectReference: {fileID: 0}
    - target: {fileID: 1575153966761093898, guid: 1ccc8e2e624334c4a9d19c51ac84636c,
        type: 3}
      propertyPath: m_AnchoredPosition.y
      value: 0
      objectReference: {fileID: 0}
    - target: {fileID: 1575153966761093898, guid: 1ccc8e2e624334c4a9d19c51ac84636c,
        type: 3}
      propertyPath: m_SizeDelta.x
      value: 0
      objectReference: {fileID: 0}
    - target: {fileID: 1575153966761093898, guid: 1ccc8e2e624334c4a9d19c51ac84636c,
        type: 3}
      propertyPath: m_SizeDelta.y
      value: 45
      objectReference: {fileID: 0}
    - target: {fileID: 1575153966761093898, guid: 1ccc8e2e624334c4a9d19c51ac84636c,
        type: 3}
      propertyPath: m_AnchorMin.x
      value: 0
      objectReference: {fileID: 0}
    - target: {fileID: 1575153966761093898, guid: 1ccc8e2e624334c4a9d19c51ac84636c,
        type: 3}
      propertyPath: m_AnchorMin.y
      value: 0
      objectReference: {fileID: 0}
    - target: {fileID: 1575153966761093898, guid: 1ccc8e2e624334c4a9d19c51ac84636c,
        type: 3}
      propertyPath: m_AnchorMax.x
      value: 0
      objectReference: {fileID: 0}
    - target: {fileID: 1575153966761093898, guid: 1ccc8e2e624334c4a9d19c51ac84636c,
        type: 3}
      propertyPath: m_AnchorMax.y
      value: 0
      objectReference: {fileID: 0}
    - target: {fileID: 1575153966761093898, guid: 1ccc8e2e624334c4a9d19c51ac84636c,
        type: 3}
      propertyPath: m_Pivot.x
      value: 0.5
      objectReference: {fileID: 0}
    - target: {fileID: 1575153966761093898, guid: 1ccc8e2e624334c4a9d19c51ac84636c,
        type: 3}
      propertyPath: m_Pivot.y
      value: 0.5
      objectReference: {fileID: 0}
    - target: {fileID: 6838040878401480414, guid: 1ccc8e2e624334c4a9d19c51ac84636c,
        type: 3}
      propertyPath: m_havePropertiesChanged
      value: 1
      objectReference: {fileID: 0}
    - target: {fileID: 6838040878401480414, guid: 1ccc8e2e624334c4a9d19c51ac84636c,
        type: 3}
      propertyPath: m_isInputParsingRequired
      value: 1
      objectReference: {fileID: 0}
    - target: {fileID: 6838040878401480414, guid: 1ccc8e2e624334c4a9d19c51ac84636c,
        type: 3}
      propertyPath: m_text
      value: Thanks for playing!
      objectReference: {fileID: 0}
    - target: {fileID: 6838040878401480414, guid: 1ccc8e2e624334c4a9d19c51ac84636c,
        type: 3}
      propertyPath: m_firstOverflowCharacterIndex
      value: -1
      objectReference: {fileID: 0}
    - target: {fileID: 6838040878401480414, guid: 1ccc8e2e624334c4a9d19c51ac84636c,
        type: 3}
      propertyPath: m_textInfo.lineCount
      value: 1
      objectReference: {fileID: 0}
    - target: {fileID: 6838040878401480414, guid: 1ccc8e2e624334c4a9d19c51ac84636c,
        type: 3}
      propertyPath: m_textInfo.characterCount
      value: 19
      objectReference: {fileID: 0}
    - target: {fileID: 6838040878401480414, guid: 1ccc8e2e624334c4a9d19c51ac84636c,
        type: 3}
      propertyPath: m_textInfo.spaceCount
      value: 2
      objectReference: {fileID: 0}
    - target: {fileID: 6838040878401480414, guid: 1ccc8e2e624334c4a9d19c51ac84636c,
        type: 3}
      propertyPath: m_textInfo.wordCount
      value: 3
      objectReference: {fileID: 0}
    m_RemovedComponents: []
  m_SourcePrefab: {fileID: 100100000, guid: 1ccc8e2e624334c4a9d19c51ac84636c, type: 3}
